%YAML 1.1
%TAG !u! tag:unity3d.com,2011:
--- !u!114 &11400000
MonoBehaviour:
  m_ObjectHideFlags: 0
  m_CorrespondingSourceObject: {fileID: 0}
  m_PrefabInstance: {fileID: 0}
  m_PrefabAsset: {fileID: 0}
  m_GameObject: {fileID: 0}
  m_Enabled: 1
  m_EditorHideFlags: 0
  m_Script: {fileID: 11500000, guid: 848409ee8ba454f42a5ddff137688a27, type: 3}
  m_Name: ReferenceImageLibrary
  m_EditorClassIdentifier: 
  m_GuidLow: 5438900029218683827
  m_GuidHigh: 11338665651040755373
  m_Images:
  - m_SerializedGuid:
      m_GuidLow: 5332104792803380197
      m_GuidHigh: 185310804734996668
    m_SerializedTextureGuid:
      m_GuidLow: 3045804918016700000
      m_GuidHigh: 12263723139385508072
    m_Size: {x: 0.254, y: 0.16891992}
    m_SpecifySize: 1
    m_Name: Rafflesia
    m_Texture: {fileID: 2800000, guid: 8185ee60df6f2a44e8c0cf22387f31aa, type: 3}
  - m_SerializedGuid:
      m_GuidLow: 4688767676970561261
      m_GuidHigh: 9713720137873368247
    m_SerializedTextureGuid:
      m_GuidLow: 16430241910255274575
      m_GuidHigh: 3143750354108030859
    m_Size: {x: 0.1, y: 0.1}
    m_SpecifySize: 1
    m_Name: Logo
    m_Texture: {fileID: 2800000, guid: 5a804a4ff1f7e4038b1f1e6f4ad8a02b, type: 3}
  - m_SerializedGuid:
      m_GuidLow: 5602505921028117032
      m_GuidHigh: 208412801924047543
    m_SerializedTextureGuid:
      m_GuidLow: 288924497207985411
      m_GuidHigh: 4143232447317295274
    m_Size: {x: 0.05, y: 0.05}
    m_SpecifySize: 1
    m_Name: QRCode
    m_Texture: {fileID: 2800000, guid: a6fd8503774c0402aa403884f5b77f39, type: 3}
  - m_SerializedGuid:
      m_GuidLow: 5253801852466864245
      m_GuidHigh: 815764188004773507
    m_SerializedTextureGuid:
      m_GuidLow: 14150307867432230777
      m_GuidHigh: 1037266289296160073
    m_Size: {x: 0.1875, y: 0.25}
    m_SpecifySize: 1
    m_Name: IMG_2890
    m_Texture: {fileID: 2800000, guid: acb69f79fe08c45f4935fcc6311c650e, type: 3}
  - m_SerializedGuid:
      m_GuidLow: 4815571308080760636
      m_GuidHigh: 4519664526404033438
    m_SerializedTextureGuid:
      m_GuidLow: 16488561715170930490
      m_GuidHigh: 11429291963324259403
    m_Size: {x: 0.05634715, y: 0.05}
    m_SpecifySize: 1
    m_Name: yeh
    m_Texture: {fileID: 2800000, guid: 11de6f3a2385e4d34b5c2b547c009d9e, type: 3}
  - m_SerializedGuid:
      m_GuidLow: 5749032636199697784
      m_GuidHigh: 18431550323873372556
    m_SerializedTextureGuid:
      m_GuidLow: 307197295342624340
      m_GuidHigh: 7681226417562690715
    m_Size: {x: 0.034305003, y: 0.07}
    m_SpecifySize: 1
    m_Name: nah
    m_Texture: {fileID: 2800000, guid: 00db9e54625004439ba42bdaba32996a, type: 3}
